// Jest Snapshot v1, https://goo.gl/fbAQLP

exports[`should render 1`] = `
<section
  className=""
>
  <div
    className="container"
  >
    <div
      className="box"
    >
      <div
        className="table-container is-mb-0"
      >
        <table
          className="table is-narrow is-fullwidth"
        >
          <thead>
            <tr>
              <th>
                Exchange ($AUD)
              </th>
              <th>
                <Header
                  currency="btc"
                  onPlot={[MockFunction]}
                  onSort={[MockFunction]}
                  plot="eth"
                  position={0}
                  sort="eth"
                />
              </th>
              <th>
                <Header
                  currency="eth"
                  onPlot={[MockFunction]}
                  onSort={[MockFunction]}
                  plot="eth"
                  position={1}
                  sort="eth"
                />
              </th>
              <th>
                <Header
                  currency="bch"
                  onPlot={[MockFunction]}
                  onSort={[MockFunction]}
                  plot="eth"
                  position={2}
                  sort="eth"
                />
              </th>
              <th>
                <Header
                  currency="ltc"
                  onPlot={[MockFunction]}
                  onSort={[MockFunction]}
                  plot="eth"
                  position={3}
                  sort="eth"
                />
              </th>
              <th />
            </tr>
          </thead>
          <tbody />
        </table>
      </div>
      <div
        className="is-ml-2 is-mt-3 is-mr-2"
      />
    </div>
  </div>
</section>
`;
