// Jest Snapshot v1, https://goo.gl/fbAQLP

exports[`should render 1`] = `
<nav
  aria-label="main navigation"
  className="navbar is-fixed-top is-dark"
  role="navigation"
>
  <div
    className="container"
  >
    <div
      className="navbar-brand"
    >
      <a
        className="navbar-item"
        href="/"
        style={
          Object {
            "fontSize": "22px",
          }
        }
      >
        <h1>
          Crypto Arbitrage
        </h1>
      </a>
      <a
        aria-expanded="false"
        aria-label="menu"
        className="navbar-burger burger "
        data-target="navbar"
        onClick={[Function]}
        role="button"
      >
        <span
          aria-hidden="true"
        />
        <span
          aria-hidden="true"
        />
        <span
          aria-hidden="true"
        />
      </a>
    </div>
    <div
      className="navbar-menu "
      id="navbar"
    >
      <div
        className="navbar-end"
      >
        <div
          className="navbar-item"
        >
          <span
            className="tag is-primary is-medium"
          >
            guest
          </span>
        </div>
      </div>
    </div>
  </div>
</nav>
`;
