// Jest Snapshot v1, https://goo.gl/fbAQLP

exports[`should render 1`] = `
<section
  className="hero"
>
  <div
    className="hero-body hero-body-spacing"
  >
    <div
      className="container"
    >
      <h1
        className="title is-5"
      />
      <h2
        className="subtitle is-6"
      />
    </div>
  </div>
</section>
`;
